<?xml version="1.0" encoding="UTF-8" standalone="no"?>
<!-- Created with Inkscape (http://www.inkscape.org/) -->

<svg
   xmlns:dc="http://purl.org/dc/elements/1.1/"
   xmlns:cc="http://creativecommons.org/ns#"
   xmlns:rdf="http://www.w3.org/1999/02/22-rdf-syntax-ns#"
   xmlns:svg="http://www.w3.org/2000/svg"
   xmlns="http://www.w3.org/2000/svg"
   xmlns:sodipodi="http://sodipodi.sourceforge.net/DTD/sodipodi-0.dtd"
   xmlns:inkscape="http://www.inkscape.org/namespaces/inkscape"
   width="181.27499"
   height="64.71875"
   id="svg5701"
   version="1.1"
   inkscape:version="0.48.4 r9939"
   sodipodi:docname="ys.svg"
   inkscape:export-filename="D:\Documents\University Classes\Yüksek Lisans\Aktif Filtre Sentezi\Ödev\Proje\AFS_Proje\tekli_IAD.png"
   inkscape:export-xdpi="750"
   inkscape:export-ydpi="750">
  <defs
     id="defs5703" />
  <sodipodi:namedview
     id="base"
     pagecolor="#ffffff"
     bordercolor="#666666"
     borderopacity="1.0"
     inkscape:pageopacity="0.0"
     inkscape:pageshadow="2"
     inkscape:zoom="10.971315"
     inkscape:cx="90.636952"
     inkscape:cy="32.35019"
     inkscape:document-units="px"
     inkscape:current-layer="layer1"
     showgrid="false"
     fit-margin-top="20"
     fit-margin-left="20"
     fit-margin-right="20"
     fit-margin-bottom="20"
     inkscape:window-width="1680"
     inkscape:window-height="988"
     inkscape:window-x="-8"
     inkscape:window-y="-8"
     inkscape:window-maximized="1" />
  <metadata
     id="metadata5706">
    <rdf:RDF>
      <cc:Work
         rdf:about="">
        <dc:format>image/svg+xml</dc:format>
        <dc:type
           rdf:resource="http://purl.org/dc/dcmitype/StillImage" />
        <dc:title></dc:title>
      </cc:Work>
    </rdf:RDF>
  </metadata>
  <g
     inkscape:label="Layer 1"
     inkscape:groupmode="layer"
     id="layer1"
     transform="translate(-295.07733,-365.70791)">
    <g
       transform="translate(252.81957,-481.94834)"
       id="layer1-5"
       inkscape:label="Layer 1">
      <path
         transform="matrix(0.44842423,0,0,0.44842423,40.719383,822.72414)"
         d="m 71.59533,128.79378 c 0,6.232 -5.05204,11.28404 -11.284047,11.28404 -6.232007,0 -11.284047,-5.05204 -11.284047,-11.28404 0,-6.23201 5.05204,-11.28405 11.284047,-11.28405 6.232007,0 11.284047,5.05204 11.284047,11.28405 z"
         sodipodi:ry="11.284047"
         sodipodi:rx="11.284047"
         sodipodi:cy="128.79378"
         sodipodi:cx="60.311283"
         id="path2985"
         style="fill:#000000;fill-opacity:1;stroke:#000000;stroke-width:2;stroke-linejoin:round;stroke-miterlimit:4;stroke-opacity:1;stroke-dasharray:none"
         sodipodi:type="arc" />
      <path
         transform="translate(0,752.36218)"
         inkscape:connector-curvature="0"
         id="path3755"
         d="m 72.373541,128.01556 121.400779,0"
         style="fill:none;stroke:#000000;stroke-width:3.5;stroke-linecap:butt;stroke-linejoin:miter;stroke-miterlimit:4;stroke-opacity:1;stroke-dasharray:none" />
      <path
         inkscape:connector-curvature="0"
         id="path3759"
         d="m 128.79377,868.7046 19.56787,11.29751 -19.6465,11.34291"
         style="fill:none;stroke:#000000;stroke-width:2.4000001;stroke-linecap:butt;stroke-linejoin:miter;stroke-miterlimit:4;stroke-opacity:1;stroke-dasharray:none" />
      <path
         sodipodi:type="arc"
         style="fill:#000000;fill-opacity:1;stroke:#000000;stroke-width:2;stroke-linejoin:round;stroke-miterlimit:4;stroke-opacity:1;stroke-dasharray:none"
         id="path3763"
         sodipodi:cx="60.311283"
         sodipodi:cy="128.79378"
         sodipodi:rx="11.284047"
         sodipodi:ry="11.284047"
         d="m 71.59533,128.79378 c 0,6.232 -5.05204,11.28404 -11.284047,11.28404 -6.232007,0 -11.284047,-5.05204 -11.284047,-11.28404 0,-6.23201 5.05204,-11.28405 11.284047,-11.28405 6.232007,0 11.284047,5.05204 11.284047,11.28405 z"
         transform="matrix(0.44842423,0,0,0.44842423,170.97996,822.72414)" />
    </g>
  </g>
</svg>
